GAMS MIRO Walkthrough
…
                        We will now return to the Configuration Mode and start
                        building our first renderer. Hopefully you have already
                        added
                        plotOutput(ns("cumsumPlot"))
                        to the placeholder function. To get a general idea of
                        what we are working with, let us first take a look at
                        the
                        data by simply printing
                        it (print(data)) inside
                        the renderer. If we now press Update, we still
                        won’t see anything, because no rendering has been done
                        yet, but if we look at the console, we will see:

# A tibble: 24 x 6
    j      level marginal lower upper scale
    <chr>  <dbl>    <dbl> <dbl> <dbl> <dbl>
1 hour00   -50        0  -Inf   Inf     1
2 hour01   -80        0  -Inf   Inf     1
3 hour02   -90        0  -Inf   Inf     1
4 hour03  -100        0  -Inf   Inf     1
5 hour04   -30        0  -Inf   Inf     1
6 hour05   -10        0  -Inf   Inf     1
7 hour06    10        0  -Inf   Inf     1
8 hour07    40        0  -Inf   Inf     1
9 hour08   -40        0  -Inf   Inf     1
10 hour09     0        0  -Inf   Inf     1
# i 14 more rows
…
