…
Now we need a connection between our placeholder and the renderer. To do this, we look at the arguments the rendering function gets

- `input`: Access to Shiny inputs, i.e. elements that generate data, such as sliders, text input,... (`input$hour`).
- `output`: Controls elements that visualize data, such as plots, maps, or tables (`output$cumsumPlot`).
- `session`: Contains user-specific information.
- `data`: The data for the visualization is specified as an R [tibble](https://cran.r-project.org/web/packages/tibble/vignettes/tibble.html). If you've specified multiple datasets in your MIRO application, the data will be a named list of tibbles. Each element in this list corresponds to a GAMS symbol (`data$battery_power`).

For more information about the other options, see the [documentation](https://www.gams.com/miro/configuration_advanced.html#custom-renderers).

We will now return to the Configuration Mode and start building our first renderer. Hopefully you have already added `plotOutput(ns("cumsumPlot"))` to the placeholder function. To get a general idea of what we are working with, let us first take a look at the `data` by simply printing it (`print(data)`) inside the renderer. If we now press *Update*, we still won't see anything, because no rendering has been done yet, but if we look at the console, we will see:

```
# A tibble: 24 x 6
   j      level marginal lower upper scale
   <chr>  <dbl>    <dbl> <dbl> <dbl> <dbl>
 1 hour00     0        0  -Inf   Inf     1
 2 hour01     0        0  -Inf   Inf     1
 3 hour02    -5        0  -Inf   Inf     1
 4 hour03   -30        0  -Inf   Inf     1
 5 hour04   -40        0  -Inf   Inf     1
 6 hour05   -40        0  -Inf   Inf     1
 7 hour06   -20        0  -Inf   Inf     1
 8 hour07    10        0  -Inf   Inf     1
 9 hour08    45        0  -Inf   Inf     1
10 hour09    15        0  -Inf   Inf     1
# i 14 more rows
```
…
